Fatality Analysis Reporting System (FARS)
…
This function returns file name and path to the data files:

yr <- 2015
make_filename(yr)

## [1] "C:/Users/serge/OneDrive/Documents/Coursera/R/CourseraBuildingRPackage/CourseraBuildingRPackage/inst/extdata/accident_2015.csv.bz2"

Function fars_read_years

Ancillary function used by fars_summarize_years

fars_read_years(2013)

## [[1]]
## # A tibble: 30,202 x 2
##    MONTH  year
##    <int> <int>
##  1     1  2013
##  2     1  2013
##  3     1  2013
##  4     1  2013
##  5     1  2013
##  6     1  2013
##  7     1  2013
##  8     1  2013
##  9     1  2013
## 10     1  2013
## # ... with 30,192 more rows
…
